<svg xmlns="http://www.w3.org/2000/svg" width="13" height="9" viewBox="0 0 13 9">
    <path fill="#1C1E4A" fill-opacity=".5" d="M11.104 0c-.507 0-.983.205-1.346.583L6.5 4.165 3.237.577C2.879.205 2.403 0 1.896 0 .85 0 0 .883 0 1.969c0 .524.196 1.018.553 1.389L5.16 8.423c.264.274.595.46.958.537.125.027.253.04.382.04s.257-.013.381-.04c.364-.077.695-.263.965-.543l4.599-5.056c.358-.372.555-.866.555-1.392C13 .883 12.15 0 11.104 0z"/>
</svg>
